1970	2	A	What are you doing? What is all this stuff?
1971	1	A	Dad's starting his own TV station, but I'm not supposed to tell Mom because she'll just bitch him out.
1972	2	A	What do you expect to accomplish?
1973	4	A	I'm saving television. Apache Chief, put the satellite on the roof.
1976	4	A	Hi there. I'm Peter Griffin, and you're watching PTV, with your favourite shows as nature intended them - with all the sex, violence, swearing and farts intact, like in All in the Family, where Archie got the Jeffersons to move.
1981	4	A	And who could forget that classic episode of The Waltons?
1990	0	A	Peter, look at these numbers. We're a hit. I'd think about expanding your programming.
1991	4	A	Brian, that's a great idea. That's exactly what we need to take PTV to the next level.
1992	4	A	Original programming.
1994	0	A	My God. Where's my roast pheasant?
1995	5	A	By now I think it's in my lower intestine.
1996	0	A	You ate it? But I told you my boss was coming for dinner.
1997	5	A	Unless he likes pork rinds, he's going home hungry.
1998	0	A	You cheeky bastard.
2003	4	A	So, what do you think?
2004	2	A	You gotta be careful about what you put on your network.
2005	2	A	Children are impressionable. Remember when Chris saw Jackie Mason?
2006	2	A	Chris, you should've left for school.
2007	1	A	Shiksa, don't start with me. I forgot to go, I should've gone.
2008	2	A	Chris, just go.
2009	1	A	Mom, relax.
2010	1	A	You look so haggard. Lie down or your heart might go...
2011	0	A	More fan mail.
2012	4	A	Sheesh, people freakin' love us. We'll be huge.
2013	2	A	I want you to cancel that show with the animals having sex.
2014	4	A	For your information, it's called Dogs Humping.
2015	4	A	It is the cornerstone of our Wednesday line-up.
2016	0	A	Responsibility lies with the parents.
2017	0	A	There are worse things for children than TV, like when Peter baby-sat the neighbours' kid.
2018	4	A	Couldn't find your toys, so why don't you just play with this blow-dryer and these rattles?
2019	4	A	Guess that's it. You probably want me out of your hair, so here's the Drano in case there's a clog.
2020	4	A	Soap's right there next to the radio, and towels are on the roof.
2021	4	A	So, good night.
2022	2	A	It's one thing if a network runs inappropriate shows I can't do anything about, but I won't have it happening in my house.
2023	4	A	There is absolutely nothing inappropriate about my programming.
2024	4	A	Hi, and welcome to The Peter Griffin Side Boob Hour, a wonderful look back on all the partial nudity network television used to offer.
2025	4	A	Look at that side boob.
2026	4	A	Check out this side boob.
2027	4	A	How about that side boob? That turn you on?
2028	4	A	Well, it shouldn't, cos that's my side boob.
2029	4	A	Good night, everybody.
2031	1	A	All right, Dad, you're on.
2032	4	A	Hey, PTV fans. Welcome to Douchebags.
2041	2	A	Peter, that's it. I asked you to stop this and you didn't listen to me.
2042	2	A	I'm sorry, but you left me no other choice.
2043	2	A	I called the FCC.
2044	4	A	Oh, yeah. I know all about the FCC.
2045	4	A	They will clean up all your talking in a menace such as this
2046	0	A	They will make you take a tinkle when you want to take a piss
2047	5	A	And they'll make you call fellatio a trouser-friendly kiss
2048	4	A	Here's the plain situation
2049	4	A	There's no negotiation with the fellas at the freakin' FCC
2050	0	A	They're as stuffy as the stuffiest of special-interest groups
2051	4	A	Make ajoke about your bowels and they order in the troops
2052	5	A	Any baby with a brain could tell them everybody poops
2053	4	A	Take a tip, take a lesson
2054	4	A	You'll never win by messin' with the fellas at the freakin' FCC
2055	4	A	And if you find yourself with some young, sexy thing
2056	4	A	You're gonna have to do her with your ding-a-ling
2057	4	A	Cos you can't say penis
2058	4	A	So they sent this little warning, they're prepared to do their worst
2059	0	A	And they stuck it in your mailbox hoping you could be coerced
2060	5	A	I can think of quite another place they should have stuck it first
2061	4	A	They may just be neurotic
2062	4	A	Or possibly psychotic
2063	4	A	They're the fellas at the freakin' FCC
2065	4	A	Shut me down, huh? Well, you'll have to catch me first.
2066	4	A	Ow! God!
2067	4	A	All right, you caught me.
2069	4	A	Well, Mr FCC, you can stop PTV, but you can never stop people from being who they are.
2071	4	A	What are you doing?
2074	4	A	How long will you be censoring us?
2078	4	A	Lois, these eggs are scrambled. I thought for sure you'd be making eggs Benedict Arnold.
2079	2	A	Brian, stop writing jokes for Peter.
2080	2	A	You brought this on yourself by putting on those filthy shows.
2081	4	A	Lois, you are so full of...
2082	4	A	What? Now I can't say... in my own... house?
2083	4	A	Great, Lois. Just great.
2084	4	A	You know, you're lucky you're good at... my...
2085	4	A	You know what I mean - when you... lubed up... toothpaste in my... cherry... Episcopalian... extension cord... wetness... with a parking ticket - that is the best.
2086	4	A	What is this?
2090	4	A	This is bogus.
2093	4	A	Lois, you ruined everything.
2094	2	A	I know it's a little extreme, but when it comes to our children, it's better to err on the safe side, right?
2095	4	A	No. You know, if everybody was as closed-minded as you, the world wouldn't have some of its most inspired creations.
2101	2	A	Come on. I know what'll make you feel better.
2102	2	A	How about a little angry sex?
2103	4	A	All right.
2105	2	A	What? Wait, we're not allowed to have sex?
2107	2	A	This isn't very romantic. How are we supposed...?
2108	4	A	I'm done. Night, Lois.
2109	2	A	Come on, you son of a me.
2110	2	A	Brian, would you mind?
2111	0	A	Yeah, sure.
2112	2	A	Sorry. I haven't had sex in two weeks. I'm just a little on edge lately.
2113	0	A	There wasn't this much tension when the slaves were freed.
2115	2	A	Peter, we have to talk.
2116	2	A	I thought this FCC thing was a good idea at first, but it's just gone way too far.
2117	4	A	What are you saying, Lois?
2118	2	A	Well, I don't want to admit it, but I think you were right.
2119	4	A	I don't believe it. Finally I can do this.
2120	4	A	I set that thing up 15 years ago. Hey, where's the clown?
2121	2	A	We've gotta do something about this. Pack your bag, Peter. We're going to Washington.
2122	4	A	There he is.
2123	1	A	Are we there yet?
2124	2	A	No, honey, we're not.
2125	1	A	Are we there yet?
2126	2	A	No, Chris.
2127	1	A	Are we there yet?
2128	2	A	Yes, Chris. OK? We're there.
2129	1	A	Liar!
2130	0	A	East of Eden? So you pretty much do whatever Oprah tells you to.
2131	5	A	This book's been around for 50 years. It's a classic.
2132	0	A	You just got it last week. There's an Oprah sticker on it.
2133	5	A	Is that what that is? Let me peel that right off.
2134	0	A	What will you read after that?
2135	5	A	She hasn't told us yet. Damn!
2137	4	A	Gentlemen, that was a fart.
2139	4	A	I'll tell you what's going on.
2140	4	A	This government's FCC is trying to take the farts away from television, and all the sex and nudity and all the poop.
2141	4	A	Well, I say it's wrong. These things are part of the fabric of American life.
2144	4	A	Yeah? Well, I can prove to you that that's a bunch of bull. Look around you.
2145	4	A	The Washington Monument. Looks an awful lot like a penis, doesn't it?
2146	4	A	The Capitol Building - quite obviously a giant boob.
2147	4	A	And the Pentagon? Well, you look me in the eye and tell me it doesn't look like a big anus.
2151	2	A	Well, you did it, Peter. You beat the FCC.
2152	4	A	Shh, Lois.
2153	4	A	Let's watch The Brady Bunch.
2164	4	A	Man, I envy you single guys.
2165	4	A	No families, partying whenever you want.
2166	4	A	These are the only people I get to party with.
2170	4	A	Not me. I was dating Lois the whole time.
2171	4	A	I never got to be wild.
2172	4	A	Except for that time I rode the mechanical bull at that bar.
2173	4	A	Oh, my God, how embarrassing!
2174	4	A	Look how much fun I am!
2175	4	A	It's like I missed out on half my life.
2176	4	A	What I wouldn't give to be 18 again, like those kids on spring break.
2179	4	A	Oh, man, see that?
2180	4	A	Everybody's getting laid but me.
2192	4	A	Hey, Death,
2193	4	A	I-I got a favor to ask you.
2194	4	A	Could you let me go back in time and be 18 again?
2200	0	A	What the hell? Where are we?
2201	4	A	Oh, my God, this is... this is Newport Country Club!
2202	4	A	I used to be a towel boy here!
2215	4	A	That sounds good to me.
2216	4	A	I'm 18, and I'm ready to do some living.
2217	4	A	We are gonna raise more hell than Hellraiser.
2223	2	A	Hello, boys.
2224	0	A	Wow.
2225	0	A	Son of a bitch.
2229	2	A	Hi, Peter.
2230	2	A	I'm really looking forward to the movie tonight.
2231	2	A	Peter and I are going to see Zapped.
2232	2	A	I figured Scott Baio was androgynous enough that we could both fantasize about him, and no one would be gay.
2233	4	A	Lois, we got the rest of our lives for me to not hear a word you just said, but tonight, I got plans with Cleveland.
2234	2	A	But we had a date.
2235	0	A	Could I Wham my Oingo Boingo into your Velvet Underground?
2237	4	A	Ronald Reagan?!
2238	4	A	The actor?!
2239	4	A	He's president?!
2240	0	A	Peter, you're the one from the future. You should know... Ah, forget it.
2245	4	A	Yeah, I've logged a lot of game hours on Menstrual Ms. Pacman.
2250	0	A	So, uh,
2251	0	A	have you seen Ghostbusters?
2253	0	A	I'm here with my boyfriend.
2254	0	A	You mean that quintessentially '80s guy with his collar turned up all the way?
2257	4	A	I'll say.
2258	0	A	Peter, is that...? Are you...
2259	0	A	Molly Ringwald?
2261	0	A	Wow, you're the biggest star in the world right now.
2262	0	A	What are you doing here?
2264	4	A	Lucky for me, huh?
2265	4	A	No, a hobby's good.
2267	4	A	Aw, man, already?
2271	4	A	Death, that was totally worth it.
2272	4	A	It was even better than the time I stumbled into that fat, lonely women's club.
2273	4	A	Uh, excuse me, could I get directions to the Providence Civic Center?
2275	4	A	Yes.
2277	4	A	Yes.
2279	4	A	What kind of cake?
2281	4	A	Well, Rusty, looks like we're gonna eat our way out of another jam.
2282	4	A	Honey, you awake?
2284	4	A	Who the hell are you?! What are you doing in my bed?!
2286	4	A	Molly Ringwald?
2287	4	A	You're my wife?!
2291	4	A	Brian, Molly Ringwald is in my bed, and she says she's my wife!
2292	0	A	That's not all.
2293	0	A	Look at this place. Everything's different.
2294	4	A	This is crazy.
2295	4	A	Brian, did you ever see that Twilight Zone episode?
2296	4	A	You know, where the woman wakes up in the hospital, and all the doctors are pigs?
2297	0	A	Yeah.
2298	4	A	I like that one.
2299	4	A	But what the hell is going on here?
2300	0	A	You know, I think I have a theory.
2301	0	A	It's possible that when we went back in time, we somehow altered the past.
2302	4	A	Geez, Brian, that's more ridiculous than the theory of why Tom Cruise runs in all his movies.
2305	4	A	Hey, where the hell is Lois?
2306	0	A	That's weird.
2307	0	A	Looks like she's coming out of Quagmire's house.
2308	4	A	Lois, what the hell?
2309	4	A	I'm gone for one night, and you sleep with Quagmire?!
2310	2	A	Mr. Griffin, what I do with my husband is none of your business.
2311	4	A	Husband?
2316	4	A	Brian, what the hell is going on?!
2317	4	A	We were only in 1984 one night, and now everything's all messed up.
2318	0	A	I think I can explain it to you, Peter.
2319	0	A	This line represents the normal flow of events.
2320	0	A	Here's where you met Lois, here's where you got married, and here's the present.
2321	0	A	And here's the night at the bar.
2322	0	A	Now, at some point during that evening, you did something that changed the course of your history, causing the time line to skew off into an alternate tangent, where you're married to Molly Ringwald,
2323	0	A	Quagmire's married to Lois, and for some reason, we have a chalk boarding the living room.
2324	4	A	Well, what are we gonna do?
2325	0	A	We got to figure out what happened at this point in time.
2326	0	A	And I'll tell you another thing that worries me.
2327	0	A	You ever hear the theory that if you kill a butterfly in the past, it can drastically alter the present?
2328	0	A	Well, who knows what else we changed.
2330	4	A	Oh, he's good.
2332	0	A	He's funny. Like him.
2334	4	A	Wow. What a show.
2337	4	A	Oh, God, Brian, we messed up bad. We messed up real bad.
2341	1	A	Hi, Mr. Griffin.
2342	5	A	How's it goin', man?
2343	4	A	Chris, Stewie!
2344	4	A	Oh, my God! All right, don't freak out, Peter.
2345	4	A	Don't freak out like you did when your goldfish died.
2346	4	A	Here you go, Lieutenant Shiny-Sides.
2347	4	A	It's okay. You don't have to eat it now.
2348	4	A	You're just sleeping.
2349	4	A	You'll eat it later.
2350	4	A	You'll eat it later, Lieutenant Shiny-Sides!
2351	2	A	Meg, stop staring at Mr. Griffin.
2352	2	A	I'm sorry, Peter.
2353	2	A	I'm afraid she's got her father's libido.
2356	2	A	I know. Who would've thought Bin Laden was hiding out in the cast of Mad TV.
2359	2	A	Oh, there's the pie.
2360	4	A	Lois, this is a huge mistake.
2361	2	A	What are you talking about, Peter?
2362	4	A	You're supposed to be married to me.
2363	4	A	We're the ones who were meant to be together. Not you and Quagmire.
2364	2	A	It's a little late for that, don't you think, Peter?
2365	2	A	I mean, there was a time back when we dated that I thought you might be the one, but as I recall, you were more interested in partying with your friends.
2366	2	A	Then Glenn came along, and stole my heart.
2367	2	A	When he kissed me that night at the Country Club Dance,
2368	2	A	I knew we'd be together forever.
2371	2	A	Oh, Glenn,
2372	2	A	I love all your sex jokes and your dirty puns.
2373	2	A	That's why I married you.
2374	2	A	Let's go upstairs and do it.
2376	4	A	Brian, going back in time ruined my life.
2377	4	A	We've got to get Death to send us back to 1984 again so I can undo what I did.
2378	0	A	Or we could just make the best of this.
2379	0	A	Al Gore is President.
2380	0	A	We could kind of just take that one and call it a win.
2381	0	A	I mean, with Bush, we didn't have flying cars that run on vegetable oil.
2392	4	A	I don't care what it takes, Brian, I've got to get Lois back somehow.
2393	0	A	Well, the only one who can help us is Death, and he only shows up when somebody dies.
2394	4	A	That's gonna be tough.
2395	4	A	With President Gore's universal health care, people are living much longer these days.
2396	0	A	And with zero tolerance gun control and a strong, well-funded educational system, there's no street crime.
2397	0	A	Face it, Peter, you not marrying Lois was the best thing that ever happened to the world.
2398	4	A	I don't care! We've got to find a way to summon Death and quick.
2399	4	A	Well, that might do it.
2400	4	A	Death, oh, thank God you're here!
2401	4	A	Listen, you've got to send me back in time again so I can marry Lois.
2404	0	A	Oh, my God, Peter, you can't marry Lois.
2405	4	A	I don't know who any of those people are.
2409	4	A	Lois! Oh, my God, it's so good to see you!
2410	2	A	Hey, Peter, you all set to go see Zapped! tonight?
2411	2	A	I figure Scott Baio was androgynous enough that we...
2412	4	A	That we could both fantasize about him and no one would be gay, yeah, I know the joke.
2413	4	A	Hey, you know what, listen, Zapped! sucks.
2414	4	A	Why don't we go see Krull?
2415	2	A	Peter, you know I'm dying to see Zapped!.
2416	4	A	I would much prefer Krull.
2417	2	A	Well, maybe you should just go by yourself.
2418	4	A	Well, maybe I will.
2419	2	A	Fine.
2420	4	A	Crap. Death!
2422	4	A	One more time.
2423	2	A	Hey, Peter, you all set to go see Zapped! tonight?
2424	2	A	I figured Scott Baio was androgynous enough that we...
2425	4	A	That's hilarious!
2426	4	A	You are a delight.
2427	4	A	And Zapped! is one of my favorite movies.
2428	4	A	I look forward to watching it with you, sweetheart.
2429	2	A	Oh, wonderful.
2430	4	A	Death!
2431	2	A	Hey, Peter, you all set to see Zapped! tonight?
2432	2	A	I figured Scott Baio...
2433	4	A	Yes.
2434	4	A	Scott Baio, gay, blah, blah, blah, blah. Ha, ha, ha...
2435	4	A	I can't wait to see the movie.
2436	2	A	Well, terrific. I'll see you tonight.
2440	4	A	I can't, Cleveland, I got a date with Lois.
2442	4	A	It is?
2443	0	A	Peter, what the hell are you doing? You're supposed to be with Lois.
2444	4	A	Aw, crap! Death!
2447	4	A	Oh, damn it, Brian, what the hell am I gonna do now?
2448	4	A	I haven't screw up this bad since I bought Joe Piscopo that barbell set.
2451	2	A	Oh, look who it is. Only 14 hours late.
2452	2	A	If you don't want to spend time with me, Peter, that's fine.
2453	2	A	But at least don't make me wait up all night for you.
2454	4	A	Lois I'm so sorry.
2455	4	A	I promise, I'll make it up to you tonight.
2456	4	A	We can watch any stupid movie you want.
2457	2	A	Sorry, I've already got plans.
2458	4	A	What do you mean plans?
2459	2	A	I'm going to the Country Club Dance with Glenn.
2460	2	A	I wanted to surprise you with the invitation last night, but you never showed up.
2461	2	A	Now, if you'll excuse me, I have to get ready.
2462	0	A	Peter, the Country Club Dance is where Lois said she fell in love with Quagmire.
2463	0	A	If they kissed at that dance, you're finished.
2464	4	A	You're right, Brian. We've got to stop them.
2465	4	A	And I think I know how.
2466	0	A	Peter!
2467	4	A	Oh, God, sorry! Sorry!
2468	4	A	Sorry. You're right, let's go to the dance.
2469	2	A	Peter used to be so passionate.
2470	2	A	Suddenly he just doesn't seem very interested in me anymore.
2474	2	A	Oh, Glenn, you're so sweet.
2475	2	A	Oh! Something popped me.
2478	4	A	Now I know what a TV dinner feels like.
2479	0	A	What?
2480	4	A	It's a line from Die Hard.
2481	4	A	Hasn't been made yet. We could ride it, Brian.
2482	4	A	After we're done with this, we could ride it.
2484	4	A	Oh, yeah, sorry about that.
2487	2	A	Oh, I love this song.
2488	4	A	Lois, may I have this dance?
2489	2	A	Peter, what are you doing here?
2490	4	A	I love you, Lois Pewterschmidt.
2491	4	A	And not Quagmire or any man, she-male, robot or sentient robot curious about its own existence is going to keep you from me!
2492	2	A	Peter, I am here with Glenn.
2493	2	A	You had your chance with me and you blew it.
2494	2	A	Now leave us alone.
2495	4	A	Is that what you really want, Lois?
2496	2	A	Yes, it is.
2497	4	A	Well, I guess that's it.
2498	4	A	Who the hell am I kidding?
2499	4	A	I don't deserve her.
2500	0	A	Come on, Peter.
2501	0	A	Prove to Lois that you love her.
2502	0	A	It's your last chance.
2503	4	A	Hey, Quagmire.
2505	4	A	Sorry, Lois, but I have to do this.
2506	2	A	Oh, Peter, that was so passionate.
2507	2	A	Why, I didn't know I meant that much to you.
2508	4	A	Are you kidding?
2509	4	A	Lois, I couldn't bear to live without you.
2510	4	A	I came back thinking I was missing something in my life.
2511	4	A	But what I almost missed was the best thing that's ever happened to me.
2512	4	A	Lois Pewterschmidt, will you be my wife?
2513	2	A	Yes.
2514	2	A	Yes, I will.
2516	0	A	Uh... okay.
2517	0	A	Here's a song by a gay guy.
2518	0	A	We're no strangers to love
2519	0	A	You know the rules and so do I
2520	0	A	A full commitment's what I'm thinking of
2521	0	A	You wouldn't get this from any other guy
2522	0	A	I just want to tell you how I'm feeling
2523	0	A	Got to make you understand
2524	0	A	Never gonna give you up Never gonna let you down
2525	0	A	Never gonna run around...
2528	0	A	Never gonna say good-bye
2529	0	A	Never gonna tell a lie and hurt you...
2534	0	A	Never gonna give Never gonna give
2536	0	A	Never gonna give Never gonna give
2538	0	A	Never gonna give...
2540	2	A	Wow, Peter, that's an amazing story.
2541	2	A	And I'm touched that you went through so much trouble just to be with me.
2542	2	A	Obviously, I made the right choice when I married you.
2543	4	A	Me, too, Lois.
2544	4	A	And, hey, let's just all be grateful that things are completely back to normal again.
2547	4	A	What a rip-off.
2548	4	A	It's just Kim Cattrall sitting indian-style.
2549	2	A	Boy, they've got some very unusual prizes
2550	2	A	At the carnival this year.
2556	1	A	Oh, boy! Mom, can I keep him?
2557	2	A	Well, it's a big responsibility, Chris.
2558	2	A	That means you'll have to clean up after him and feed him.
2559	1	A	What do you eat?
2561	1	A	I like your hair.
2563	1	A	You have a beautiful speaking voice.
2569	5	A	Brian, look what I won!
2570	0	A	Wow, what'd you win that for?
2571	5	A	For having the best pig in the competition.
2572	0	A	Wait, you bred a pig? Sure did.
2573	5	A	Most genetically-perfect one in the contest.
2575	0	A	Oh, my god!
2576	5	A	Yes, he's something, isn't he?
2577	0	A	Are those fists?
2578	5	A	Damn right. Show him, pig.
2579	0	A	How the hell did you do this?
2580	5	A	I'll let you in on a little secret, brian.
2581	5	A	I didn't do it. I got it from a farm.
2582	0	A	What the hell kind of farm breeds pigs like this?
2583	5	A	Would you like to see it for yourself, brian?
2584	0	A	Yeah, I would.
2585	5	A	Good, 'cause it's gonna blow your mind
2586	5	A	Like the stereopticon did to Americans in 1910.
2592	5	A	This is it, Brian.
2593	0	A	What's that?
2594	5	A	It's how I got the pig.
2595	5	A	You ever heard of the multiverse theory, Brian?
2596	0	A	Well, of course I have,
2597	0	A	But I'm wondering if you have.
2598	5	A	Oh, my god. So transparent.
2599	5	A	Well, the theory states
2600	5	A	That there are an infinite number of universes
2601	5	A	Coexisting with ours on parallel dimensional planes.
2602	0	A	Dimensional planes, right.
2603	5	A	Don't, don't do that.
2604	5	A	Don't, don't repeat the last two words
2605	5	A	Like you already kinda knew what I was talkin' about.
2606	5	A	You have no idea what I'm talkin' about.
2607	5	A	Now in each of these alternate universes,
2608	5	A	The reality is different than our own.
2609	5	A	Sometimes only slightly, sometimes quite radically.
2610	5	A	The point is, every possible eventuality exists.
2611	0	A	And that's where you got the pig,
2612	5	A	In a parallel universe.
2613	5	A	Prepare yourself, brian, and I'll show you.
2614	0	A	Where are we?
2615	5	A	This is quahog, brian. Same year, same time.
2616	5	A	But in this universe,
2617	5	A	Christianity never existed, which means the dark ages
2618	5	A	Of scientific repression never occurred, and thus,
2619	5	A	Humanity is a thousand years more advanced.
2620	5	A	Ergo, muscular, genetically perfect pigs.
2621	0	A	Hey, look, there's quagmire.
2627	5	A	What time do you suppose it is, brian?
2628	0	A	I don't know, about 3:30.
2629	5	A	Watch the sidewalk.
2634	0	A	My god, is that... Meg?!
2635	5	A	And you know what's amazing?
2636	5	A	In this universe,
2637	5	A	She's still one of the ugly ones.
2638	5	A	If you saw lois,
2639	5	A	You'd have to put your penis in a wheelchair.
2640	5	A	Come on. I'll show you around.
2641	0	A	Hey, is there a bathroom around here?
2642	5	A	Oh, you need to go pee or poop?
2643	5	A	Poop. One poop removal.
2645	0	A	Wow, did I just go poop?
2646	5	A	You sure did. All digital.
2647	0	A	Where does it go?
2648	5	A	It gets beamed to another dimension.
2649	0	A	Let me ask you this:
2650	0	A	What about all the renaissance art that christianity inspired?
2651	5	A	That was my first question, too.
2652	5	A	Come on, have a look at the sistine chapel.
2653	0	A	Wow.
2654	5	A	Yeah, with no christianity to inspire michelangelo,
2655	5	A	They gave the job to john hinckley.
2656	5	A	All right, you ready to go home now?
2657	0	A	Are you kidding? This is amazing.
2658	0	A	Can we see more universes?
2659	5	A	Hmm. Well, I haven't tried yet,
2660	5	A	But I don't see why not.
2661	5	A	Whoa, what's this place?
2662	0	A	Yeah, this universe looks weird.
2663	5	A	Yeah, it's cheap and somehow lazy.
2664	4	A	Peter: Yabba-dabba... (giggles)
2665	2	A	Rockpeter?
2667	4	A	Yes, rocklois?
2668	2	A	That was wonderful rock sex we had last rock night.
2670	4	A	Yes, I enjoyed rocking you up the rock last night.
2672	2	A	I know. I'm glad you wore that rock ring.
2674	4	A	But we still always use a rockphylactic.
2676	5	A	Hey, brian, want to get the rock out of here?
2677	0	A	Rock yeah.
2678	0	A	Huh. This looks like spooner street,
2679	0	A	Only something's not quite right.
2680	5	A	According to the multiverse guide,
2681	5	A	This is a universe where the United States
2682	5	A	Never dropped the atomic bomb on hiroshima,
2683	5	A	So the japanese just never quit.
2684	4	A	(farts)
2685	1	A	(giggles)
2686	0	A	Well, I think I've seen enough.
2687	0	A	Let's get back to our universe.
2688	5	A	All right, off we go.
2689	5	A	Ah, home, sweet home.
2690	2	A	Lois (happy): Peter?
2691	2	A	(sad): Peter?
2692	4	A	(happy): What?
2693	4	A	(sad): What?
2694	2	A	(happy): Can you take out the trash?
2695	2	A	(sad): 'cause it stinks in the kitchen.
2696	4	A	(happy): Sure thing, lois, delighted to.
2697	4	A	(sad): I get tired when I stand.
2699	0	A	What the hell is this?
2700	0	A	This isn't our universe.
2701	5	A	Apparently, this is a universe
2702	5	A	Where everyone has two heads: One happy, one sad.
2703	2	A	Honey, have you seen stewie?
2704	2	A	I can't find him anywhere.
2705	4	A	I sure have!
2706	4	A	He's over there, playing in the corner.
2707	5	A	(happy): I want you to know I love you.
2708	5	A	(sad): I'm trying to get excited about it.
2709	0	A	Oh, this is too freaky.
2710	0	A	Why didn't that thing take us home?
2711	5	A	I don't know. I told you,
2712	5	A	It hasn't been fully tested yet.
2713	0	A	Well, we can't stay here, that's for sure.
2718	0	A	Stewie, please tell me you know how to get us home.
2719	5	A	Of course I know how to get us home.
2720	0	A	What the hell? Stewie, what's going on?
2721	5	A	Well, from the look of it,
2722	5	A	I'm guessing this is quahog, but during some sort of ice age.
2723	0	A	Well, press the button. Get us outta here.
2724	5	A	Uh-oh, I can't reach the device.
2725	0	A	What? You're kidding.
2726	5	A	Yeah, get comfortable.
2727	5	A	I think we're gonna be here for a while.
2728	5	A	Oh, look, there's your poop from the other universe.
2729	0	A	Stewie, you gotta get us out of here!
2730	0	A	If we stay in here much longer,
2731	0	A	We're either gonna freeze or starve!
2732	5	A	I know, but I can't reach the device.
2733	5	A	You try. You're closer to it,
2734	5	A	And besides, you're stronger than I am.
2735	5	A	Hey, what was that?
2736	0	A	Oh, well, you said I was stronger than you,
2737	0	A	And that must have made me happy.
2738	0	A	So my tail started wagging.
2739	5	A	Looks like it carved through the ice a bit.
2740	0	A	Yeah, it did. Keep going.
2741	5	A	Okay, uh, let's see, um...
2742	5	A	You want to go for a walk?
2743	0	A	It's working! Do more!
2744	5	A	Uh, you want a treat?! You want a treat, boy?!
2745	0	A	That's good, that's good, but you...
2746	0	A	You really have one, right?! Oh, yeah, yeah.
2747	0	A	And we're going for that walk?!
2748	5	A	Oh, yeah, definitely. And, um, I'll, I'll give you a bath!
2749	0	A	No, no, no! Oh, sorry, sorry.
2750	5	A	And, and I'll, I'll let you go for a ride in the car!
2751	0	A	Oh, you better not be lying!
2752	5	A	You want to sleep in the bed with us?!
2753	0	A	Yes! Oh, I never get to!
2754	0	A	It must be a special occasion!
2755	5	A	You got it! You're through!
2756	0	A	Yes! All right, what do I do?
2757	5	A	Just press the red button!
2758	0	A	Okay. Uh, which one's red?
2759	5	A	Press the big button!
2760	0	A	This can't be it.
2761	0	A	This doesn't look familiar.
2762	5	A	You're right, brian.
2763	5	A	Apparently, this is a universe
2764	5	A	Where everyone has to take a poop right just now.
2771	0	A	What the hell? What's happened to us?
2772	5	A	I don't know, but suddenly I feel
2773	5	A	All sweet and warm and fuzzy.
2774	5	A	It seems we're in a universe
2775	5	A	Where everything is drawn by disney.
2776	0	A	Look, there's our house.
2778	5	A	Look how gaily we run!
2779	2	A	Oh, stewie and brian, you're just in time for pie.
2780	4	A	Peter: Did somebody say pie?
2782	4	A	¶ it's a wonderful day for pie ¶
2783	4	A	¶ you can ask all the birds in the sky ¶
2784	4	A	¶ and they'll tell you real sweet with a musical tweet ¶
2788	2	A	¶ for pie ¶
2790	5	A	This is wonderful, brian.
2791	5	A	Oh, let's live in this universe.
2792	0	A	Gosh, it's pretty intoxicating, isn't it?
2793	5	A	I want to hear more music about pie.
2794	4	A	¶ it's a wonderful day for pie ¶
2798	4	A	¶ and this adam west mouse ¶
2805	5	A	Brian, we could spend the rest of our lives here.
2806	5	A	It's perfect. Sounds good to me.
2807	0	A	Doesn't seem to be a thing wrong with this place.
2810	5	A	Oh, yeah, I forgot. This is a disney universe.
2811	5	A	Oh, but look at how shiny my buttons are here.
2812	0	A	Just push the... Yeah, yeah, okay, okay.
2813	5	A	I'll push the thing.
2815	0	A	Whoa, this is trippy.
2816	5	A	I should say so. We're in the robot chicken universe.
2817	4	A	Will you guys move? You're blocking the tv.
2818	1	A	Look! Gi joe, transformers, thundercats, he-man!
2819	1	A	Yay! Those shows existed!
2820	5	A	How's it feel to be on a major network for 30 seconds?
2821	1	A	(bleep) you!
2822	5	A	Bye.
2823	5	A	My god. This place looks terrible.
2824	0	A	Looks like quahog was vaporized or something.
2825	5	A	It says that in this universe, frank sinatra was never born,
2826	5	A	And therefore, he was unable to use his influence
2827	5	A	To get kennedy elected.
2828	5	A	So, nixon won the 1960 election
2829	5	A	And totally botched the cuban missile crisis,
2830	5	A	Causing world war iii.
2831	0	A	Wow, so I guess lee harvey oswald never shot kennedy?
2832	0	A	No, he shot mayor mccheese.
2835	0	A	That joke's not in bad taste, right?
2836	5	A	Oh, who cares? He's a cheeseburger.
2837	0	A	Ew. Where are we?
2838	5	A	I don't know. The device can't make heads or tails of it.
2839	5	A	It's just some sort of weird, low resolution blocky universe.
2840	4	A	Lois, where is my supper?
2841	2	A	Still in the oven.
2842	4	A	Will I have it soon? Quite soon.
2843	2	A	Thank you! You're welcome!
2844	4	A	Nyah! Nyah!
2845	2	A	Nyah! Nyah!
2846	3	A	Nyah! Nyah!
2847	1	A	Nyah! Nyah!
2848	5	A	I'm frightened. Let's go.
2849	0	A	Love it. Hate it.
2850	5	A	Love it. Hate it.
2851	5	A	Uh, brian? Yeah?
2852	5	A	This feels weird.
2853	0	A	Hit the button.
2854	0	A	Oh, god, what is this?
2855	0	A	I feel like I'm on acid or something.
2856	5	A	According to the multiverse guide, this is a universe
2857	5	A	Where everything is depicted
2858	5	A	As a Washington Post political cartoon.
2859	5	A	Good lord, I'm naked.
2860	5	A	And why am I holding a dinner platter
2861	5	A	That says mccain/ feingold?
2862	0	A	(laughing)
2863	0	A	That's-that's pretty good.
2864	0	A	That's-that's funny.
2865	5	A	You don't get it.
2866	0	A	No, no, I totally get it.
2867	5	A	Oh, god. Let's go, quick.
2868	5	A	Here comes an overweight cat with dollar signs for eyes
2869	5	A	And a hat that says social security,
2870	5	A	Pouring a bucket that says alternative minimum tax
2871	5	A	Over a sad statue of liberty holding a democracy umbrella.
2872	0	A	(laughing): Yes!
2873	0	A	Oh, that ought to wake people up.
2874	5	A	Shut the (bleep) up.
2875	0	A	Oh, my god. Now we're nowhere.
2876	5	A	Not quite, brian.
2877	5	A	This is a universe, but its only inhabitant
2878	5	A	Is one really far away guy who yells compliments.
2880	5	A	Thank you!
2881	5	A	This was nice.
2882	0	A	We did it. We're back.
2883	5	A	No. This is the universe of misleading portraiture.
2884	0	A	Aw.
2885	5	A	Oh, wait. It's not so bad. There's the compliment guy.
2886	5	A	Hello!
2887	5	A	(groans) they got both of us!
2888	0	A	We're finished. We're never going to get home.
2889	0	A	We're never going to see our peter and lois
2890	0	A	Or anyone else we know ever again.
2891	5	A	You got your pal stewie.
2892	5	A	Great. Aw, you could learn something from compliment guy.
2893	5	A	And you know, it's not as bad as you think.
2894	5	A	I may have finally figured this out.
2895	5	A	I just need to make a few more calculations...
2896	0	A	Whoa.
2899	0	A	Oh, it's quite all right.
2900	0	A	Um, wow. Okay, this is ridiculous.
2901	5	A	You go here. You, you naughty little wire,
2902	5	A	You're supposed to be over here.
2903	5	A	How did you get over there?
2904	0	A	Oh, yeah.
2907	5	A	And that should do it.
2908	5	A	Now, let's go home.
2909	5	A	Hey! What the hell are you doing?
2910	0	A	I just don't think we should be too hasty.
2911	0	A	I mean, we have a unique opportunity
2912	0	A	To study alternate universes in depth.
2913	5	A	Brian, give me the damn device.
2914	5	A	Give it. (groaning)
2915	5	A	No, knock it off. Give it.
2916	5	A	No, stop it. Stop it. Come on, give it.
2917	5	A	No. Come on. Come on.
2919	5	A	What the hell, man?
2920	5	A	What the hell? Look what you did!
2923	5	A	Take your stinkin' paws off me, you damn dirty dog.
2924	5	A	What the hell were you thinking, Brian?
2925	5	A	We're never going to get home now.
2926	5	A	Why the hell would you break the damn device?
2927	0	A	Look, it was an accident, all right?
2928	0	A	And besides, look at this place.
2929	0	A	It's a world run by dogs.
2930	0	A	I mean, I kind of want to explore this universe.
2931	5	A	Oh, you like role reversal?
2932	5	A	Huh? Okay.
2933	0	A	Wait, what are you doing? Oh! Oh! Come on!
2934	5	A	Pick up my poop! Pick up my poop!
2935	0	A	I'm not picking up your poop!
2937	5	A	You heard him, brian. Pick up my poop.
2938	5	A	Go on, pick it up. Do it-- pick up my poop!
2939	0	A	I need a plastic bag.
2940	5	A	Here's a thin napkin.
2941	0	A	Okay, I'm a a new neighbor and you're my pet human hotchkiss.
2942	0	A	Got it? I-I-I don't...
2943	5	A	I'm not so crazy about hotchkiss anymore.
2944	0	A	What do you mean? You came up with hotchkiss.
2945	5	A	I know, but...
2946	5	A	How about axel or-or-or maximilian or dex, you know?
2947	5	A	It's-it's got to have an x in it because...
2948	5	A	cause that means I have cool parents
2949	5	A	Who take me on expensive ski trips on spring break
2950	5	A	And I get to drink wine with dinner,
2951	5	A	Even though I'm only 14, and...
2953	4	A	Oh, my god! I know that sound!
2954	4	A	That means there's a potential intruder at the front door
2955	4	A	Or one of my pals. Either way, I'm really excited
2956	4	A	And ready for anything! Hello?
2957	4	A	(chuckles)
2958	0	A	Hello, my name is blake carrington.
2959	0	A	Aw. And this is my human, gabe.
2960	5	A	Oh, no. What?
2961	0	A	We just moved in down the street
2962	0	A	And thought we'd stop in and say hi to our new neighbors.
2963	4	A	Well, great to meet you. Come on in. I'm peter.
2964	4	A	This is my family. My wife lois.
2965	4	A	My son, chris-- chris, stop licking yourself
2966	4	A	And come up and say hi!
2967	4	A	My daughter meg.
2968	4	A	Our puppy stewie.
2969	4	A	And this is our human brian.
2970	0	A	Nice to meet you. say hi to human brian, blake,
2971	0	A	Says gabe. Hi.
2972	5	A	Mommy, I want to play with the new human.
2973	2	A	Only if it's okay with blake.
2974	0	A	Uh, yeah, sure, it's fine.
2975	0	A	Gabe is great with puppies.
2976	5	A	I swear to god, I hope the next universe we go to
2977	5	A	Is all koreans.
2978	5	A	I know who you are, stewie.
2979	5	A	I beg your pardon?
2980	5	A	I've perfected multiverse travel, as well.
2981	5	A	In fact, I've figured out
2982	5	A	How to navigate with absolute precision.
2983	5	A	Really? I haven't.
2984	5	A	We've been jumping randomly from one universe to the next.
2985	5	A	Did you have the shuffle button on?
2986	5	A	Oh, my god. There you go.
2987	5	A	That's why that little symbol...
2988	5	A	Mm-hmm. Mm-hmm. The two crossed arrows...
2989	5	A	There it is. ...Is up there in the corner.
2990	5	A	There's your problem. Oh, my god. I feel silly.
2991	5	A	But I can't do anything about it.
2992	5	A	My device has been destroyed.
2993	5	A	Well, I've got one of my own. I can use it to send you back.
2994	5	A	Hold on, I'll get it.
2995	4	A	(doorbell rings)
2996	4	A	Oh, my god! Who is it? I got it!
3000	4	A	Yeah, sure thing.
3001	4	A	That's joe. He's our local human catcher.
3002	4	A	So don't misbehave or the human catcher'll come after you...
3003	4	A	Gabe.
3004	5	A	My name's not gabe! (growls)
3005	4	A	Ow! (screams)
3006	4	A	Oh, you're in big trouble, you little crap!
3009	5	A	(muffled screams)
3010	5	A	(screams)
3011	5	A	Who the hell do you think you are?!
3012	5	A	Brian! Brian!
3013	5	A	Do something!
3014	0	A	Look, I'm sorry about this.
3015	0	A	Let me just pay the fine or whatever
3016	0	A	And I'll make sure this doesn't happen again.
3018	0	A	Oh. Okay.
3021	0	A	What did he mean by that?
3022	0	A	Any human that bites a dog gets euthanized.
3023	0	A	You know that. No, he doesn't!
3024	5	A	He's from another universe where dogs are subservient to humans.
3025	0	A	Oh, you mean like that time we... Yeah.
3026	0	A	When we bounced around between univ... Yeah.
3027	0	A	And you couldn't figure out how to... Yes!
3028	0	A	Oh, they're going to kill him!
3029	0	A	We got to get him out of there!
3030	0	A	It's a tough world here.
3031	0	A	You hear about it every night on the dog news.
3034	5	A	Look, there he is!
3035	5	A	Oh, thank god. I'm saved.
3036	0	A	Come on, let's get out of here.
3037	5	A	All right, the two of you, stand over there
3038	5	A	And I'll send you back where you belong.
3039	5	A	Gosh, brian, I sure hope this next leap...
3040	5	A	Will be the leap home.
3041	0	A	Human brian: Wait!
3042	0	A	Take me with you.
3043	5	A	What do you mean? You can't come back to our universe.
3044	0	A	Come on, a place where humans are in charge?
3045	0	A	I can't pass that up.
3049	5	A	Well, this looks like home.
3050	0	A	Is there any way we can be sure?
3051	5	A	Hmm.
3052	3	A	Mom, have you seen my trapper keeper?
3053	4	A	(farting)
3054	4	A	(laughing)
3057	5	A	Well, now, what do we do about this guy?
3058	5	A	We got two brians in our universe now.
3059	0	A	Don't worry, I don't plan to stay in quahog.
3060	0	A	I'm gonna go out into the world
3061	0	A	And see what I can make of myself.
3062	0	A	I can be somebody here.
3063	5	A	And it should be easy for you, because...
3064	5	A	I mean-- what luck-- you're white.
3065	5	A	You have no idea how big that is here.
3066	0	A	Good-bye, Stewie. Good-bye, Brian.
3067	0	A	Maybe our paths will cross again someday.
3068	5	A	Ah, look at him go.
3069	5	A	Free in a world of his own kind,
3070	5	A	Where he can finally reach the full potential--
3073	4	A	Attention, everyone, mail call!
3074	4	A	Meg-- Teen People; Chris-- Amazing Spiderman;
3075	4	A	Lois-- Redbook;
3076	4	A	World War II Army Guy-- a letter from your gal.
3077	0	A	Open that one up, buddy.
3080	5	A	You're all wet.
3081	4	A	Hey, check this out.
3082	4	A	We got invited to a party. Peter Griffin, you and your family are cordially invited to a gala dinner in your honor at Rocky Point Manor.
3086	2	A	Well, who's the invitation from?
3087	4	A	I don't know, it doesn't say.
3088	0	A	Wait, you're not gonna go, are you?
3089	0	A	It's clearly some kind of scam.
3090	4	A	Oh, well, then maybe we just go, and you go to the kennel.
3091	0	A	Oh, not the kennel.
3092	0	A	Last time you left me there for an hour.
3093	0	A	Or ten years, I don't know-- there's no clock there!
3094	5	A	You stink when you come out of there.
3095	1	A	Dad, are we almost there?
3096	4	A	Yeah. According to the map, we're pretty close.
3097	2	A	Peter, look!
3098	2	A	My God, this is absolutely beautiful.
3099	2	A	I bet Jeff Probst has a house like this.
3100	4	A	Joe? Peter?
3101	4	A	What the hell are you guys doing here?
3104	4	A	That's weird. My invitation said it was in  my honor.
3105	4	A	I assumed it was for being able to fart the alphabet, which I almost did till I pooped on the S.
3106	4	A	Oh, well. Everybody on the bus was upset long before that anyway.
3107	0	A	What the...
3108	0	A	Derek and Jillian?
3111	0	A	What-- what are you guys doing here?
3113	0	A	Wait a minute, what the hell's going on here?
3114	0	A	Everybody got the same invitation?
3130	2	A	Wow, it-- it looks like the whole town got invited.
3144	0	A	None of this makes any sense.
3145	0	A	Everyone got invitations from an anonymous source for a dinner in their honor, when that's clearly not the case.
3146	0	A	Now we're here, where the hell's our host?
3147	5	A	Well, at least you all had eveningwear provided for you.
3148	5	A	I thought this was going to be a lawn party.
3149	5	A	I don't have one pair of long pants.
3150	0	A	Boy, it's kinda awkward seeing Jillian here with Derek.
3151	0	A	I wonder if she's thinking about me.
3152	5	A	I don't know, are you a pony or the color blue?
3164	2	A	I know, she's growing every day.
3165	2	A	Meg, you remember Dr. Hartman.
3170	2	A	James Woods!
3171	0	A	Thank you for joining me at my humble manor.
3198	4	A	And why the hell should we trust you?
3199	0	A	Yeah, you've been terrorizing our family for years.
3207	2	A	I don't know, maybe we should give him a chance.
3208	2	A	Maybe he really is born again.
3220	5	A	I can't help feeling this would be sadder if she wasn't heavy.
3221	2	A	Oh, my God. It was him!
3222	2	A	It was James Woods! He killed Stephanie!
3223	4	A	Jeez, I knew he was crazy, but I didn't think he was a murderer!
3226	4	A	Quick! We got to get out of here!
3227	4	A	Come on, get in the car!
3228	2	A	Oh, my God, Peter, back it up!
3229	4	A	Oh, really, Lois?
3230	4	A	I thought I might drive forward.
3231	4	A	I thought that-that might be a fun thing to do.
3232	1	A	Stop fighting!
3233	0	A	Oh, my God! Quick, Peter, get in the back!
3234	4	A	Oh, thank God. We made it.
3254	2	A	Oh, no. You know, I wouldn't feel right about that.
3255	2	A	We're guests, and it's long distance.
3256	0	A	Doesn't matter.
3257	0	A	The line's dead.
3262	5	A	Killer in the house...!
3271	4	A	You're a monster... Yeah, I heard it's fantastic.
3272	4	A	You're a monster, James Woods!
3273	4	A	You think you can just commit murder and get away with it?!
3274	4	A	Quagmire loved that girl!
3285	0	A	It's gone!
3297	4	A	Oh my God.
3298	4	A	Is this what black people see all the time?
3305	4	A	So James Woods murdered Stephanie, and then he murdered himself.
3306	4	A	Criss-cross.
3309	4	A	What are you saying?
3313	4	A	Now I hope I die next.
3319	4	A	Mr. Mayor, pull yourself together!
3320	0	A	Wait a minute. Joe, look!
3324	2	A	What do you mean, Joe?
3330	4	A	Oh, my God.
3331	5	A	Brian, I feel like everyone's wondering why I'm wearing shorts.
3332	0	A	Nobody's even looking at you.
3333	5	A	That's what I mean.
3334	5	A	The fact that no one has said anything makes it even more obvious that everyone has noticed.
3335	4	A	Brian, look what I found!
3336	4	A	Check it out!
3337	4	A	I'm a robot from outer space!
3338	4	A	Hang on. I'm coming down.
3339	4	A	Go, go, gadget skis!
3340	4	A	Uh-oh.
3341	4	A	All right, since it's my fault that Joe got knocked out, it is now my responsibility to take over the investigation.
3342	0	A	I-I don't know if that actually follows.
3343	4	A	Oh, it does follow, Brian.
3344	4	A	Because I'm the one with the giant magnifying glass.
3345	4	A	Is my eye big? Yeah.
3346	4	A	Good.
3347	4	A	Good. That means progress.
3348	0	A	All right, let's-let's figure out what we know here.
3349	0	A	The gun was clearly meant to kill James Woods, but Stephanie got in the way.
3350	0	A	So the murderer had to improvise and finish the job by stabbing him.
3351	0	A	Now who here had a motive for wanting James Woods dead?
3352	2	A	Well, according to James Woods, we all did.
3353	2	A	He brought us here to make amends with us.
3400	4	A	And what about Quagmire?
3403	0	A	Go to hell! I backed out of that project willingly.
3406	5	A	Eh. My secret room's bigger.
3408	4	A	All right, stand back.
3409	4	A	This could be dangerous.
3410	4	A	Oh, laundry room.
3411	4	A	Laundry room, everybody.
3412	4	A	Oh, see, here we go.
3413	4	A	Aha!
3414	4	A	James Woods made a list of all his misdeeds so he could make amends.
3415	4	A	Bonnie, he punched you in the throat, and that's why you sound like that?
3421	0	A	What are all these?
3422	0	A	God, there are tons of OxyContin bottles in here.
3423	0	A	All prescribed to James Woods.
3424	0	A	And all from Goldman's Pharmacy.
3428	4	A	Yes, he did.
3429	4	A	Says here he talked Muriel into selling him OxyContin for him and his 19-year-old girlfriend.
3430	4	A	This went on for weeks, but then she started to have misgivings and threatened to cut him off.
3431	4	A	But he wouldn't let her.
3432	4	A	He threatened to blackmail her by turning her in to the Feds.
3438	5	A	Oh, my God, I told you!
3441	2	A	She's gone!
3442	0	A	We lost her.
3443	4	A	Well, as long as there's a murderer on the loose, none of us are safe.
3444	4	A	All right, let's split up and search the house.
3445	4	A	I'll go with Lois.
3446	4	A	Chris, you check the basement with Herbert.
3447	4	A	Meg, you go with Brian and Stewie.
3448	5	A	Uh, no, she-she can't.
3449	0	A	Yeah, uh, she can't.
3450	0	A	We-we-we were gonna use this time, uh... to figure out what to get you for your birthday.
3451	4	A	Ooh, ah, okay. Oh, yeah, no, you guys go.
3452	4	A	You guys-- ooh, now I'm excited.
3453	4	A	Um, okay, um, Meg, you go with Carl. Sorry, Carl.
3454	4	A	Tom and Diane, you're a team.
3455	4	A	Quagmire and Bonnie, you're a team.
3456	4	A	Um... Seamus and Dr. Hartman? That-that could be funny.
3457	4	A	Don't usually see the two of you together.
3458	4	A	Uh, Derek and Jillian, you guys take the attic.
3459	4	A	Joe and Priscilla are still passed out, so they'll be the unconscious team.
3460	4	A	And that leaves one three-person team of Mort, Consuela, and Mayor West.
3461	4	A	All right. Let's do this.
3523	0	A	Oh, hey, there you are.
3524	0	A	Hey, listen, I got something really cool I want you to see.
3525	5	A	What is it?
3526	0	A	This. I found it in the yard.
3527	0	A	A tennis ball.
3528	5	A	That's very impressive, Brian.
3529	0	A	Yeah, but don't tell the other dogs in the neighborhood.
3530	0	A	They'll be jealous.
3532	0	A	And this is nothing.
3533	0	A	There's one tennis ball out there that's even cooler 'cause I peed on it.
3534	0	A	Buried it years ago.
3535	0	A	I just can't remember where.
3536	0	A	I'd give anything to find it, though.
3537	5	A	Well, if you could recall exactly when you buried it,
3538	5	A	I suppose I could help you out.
3539	0	A	I remember the exact day.
3540	0	A	January 31, 1999.
3541	5	A	Very well, follow me, Brian.
3542	5	A	Watch out for Ernie.
3543	5	A	He's getting a CAT scan.
3544	5	A	Well, here we are.
3545	0	A	That's odd.
3546	0	A	It's our house, but somehow it looks a little different.
3547	3	A	Mom, my lips are too thin.
3548	2	A	Can I please get collagen injections?
3549	2	A	Meg, you don't need to change the way you look.
3550	2	A	You know, most of the world's problems stem from poor self-image.
3551	5	A	Oh, my God, what's with Meg's voice?
3552	5	A	She sounds like someone who's about to give up a huge opportunity.
3553	0	A	That's nothing. Look at you.
3554	0	A	You look like a prize at some Mexican church carnival.
3555	5	A	Excellent.
3556	5	A	The mind control device is nearing completion.
3557	2	A	Stewie, I said no toys at the table.
3558	5	A	Damn you, vile woman!
3559	5	A	You've impeded my work since the day
3560	5	A	I escaped from your wretched womb.
3561	2	A	Oh, don't pout, honey.
3562	2	A	You know, when you were born, the doctor said you were the happiest looking baby he'd ever seen.
3563	5	A	But of course.
3564	5	A	That was my victory day.
3565	5	A	The fruition of my deeply-laid plans to escape from that cursed ovarian bastille.
3566	5	A	Return the device, woman!
3567	0	A	Geez. What, did you carry a thesaurus around with you?
3568	5	A	You know, it's amazing I could speak at all with that circumcision still healing.
3569	0	A	Hey, wait a minute, Stewie.
3570	0	A	That's the spot!
3571	0	A	That's where I buried my tennis ball!
3572	5	A	Whoa, whoa, whoa.
3573	5	A	Brian, what are you doing?
3574	5	A	You can't dig it up here.
3575	5	A	Just make a mental note of where you buried it, and as soon as we're back in the present, you can dig it up then.
3576	0	A	Why?
3577	5	A	Because we can't risk doing anything that alters the past.
3578	0	A	You know, I never got that.
3579	0	A	I mean, w-wouldn't you want to alter the past?
3580	0	A	I mean, you could make life better for yourself.
3581	0	A	And not just for yourself, for everyone.
3582	0	A	You-You could stop 9/11.
3583	5	A	Brian, there's one rule of time travel, and that is:
3584	5	A	Do not alter the past in any way or the consequences could be dire.
3585	0	A	Yeah, where'd you hear that?
3586	5	A	Quantum Leap.
3587	0	A	That guy changed the past all the time!
3588	0	A	Whoa, ass ahoy.
3589	0	A	Hey, Peter, it's 7:00 and you've still got your pants on.
3590	0	A	What's the occasion?
3591	5	A	Ew, I remember this.
3592	5	A	Peter's eye did that weird creepy thing where it went over his nose.
3593	4	A	Come on, you're worrying about nothing.
3594	2	A	Oh? Remember when you got drunk off the communion wine at church?
3595	5	A	Ah! Ew! Gross!
3596	5	A	Look at that.
3597	0	A	Wait, what are they doing?
3598	5	A	I don't know.
3599	5	A	They're just standing there like zombies.
3600	0	A	Do you think they're all right?
3601	5	A	I-I'm not sure.
3602	2	A	And then there was that time at the ice cream store.
3603	0	A	They're doing it again. What the hell?
3604	5	A	I-I'm at a loss.
3605	0	A	I mean, I know we're not supposed to mess with the timeline, but should we call an ambulance?
3606	5	A	That is so creepy.
3607	0	A	And remember you had an Irish coffee the day we went to see Philadelphia?
3608	5	A	Oh. They're do-- they're setting up (bleep) cutaways.
3609	0	A	Oh, my God, is that what we did back then?
3610	5	A	Yeah, I mean, now, we just like return text messages and screw around and whatnot.
3611	4	A	Lois, I'm not going back to work tomorrow.
3612	4	A	That new boss has it in for me.
3613	4	A	He's meaner than a shifty salesman.
3614	2	A	You sure you got time to smoke?
3615	4	A	Oh, yeah, it's an Al Harrington.
3616	4	A	It goes on for a while.
3617	5	A	All right, look, we found out where your ball is buried.
3618	5	A	Now let's get back to our own time.
3619	0	A	Okay, get the return pad. Let's go.
3620	5	A	Not out here in the open.
3621	5	A	Someone could see us.
3622	5	A	Remember? No altering the timeline?
3623	5	A	Come on, let's get up to my room.
3624	0	A	Hey, wait a minute, Stewie, I got to take a leak.
3625	0	A	Will it screw up the timeline if my future pee goes in a past toilet?
3626	5	A	Uh, no, as long as it goes in the toilet.
3627	5	A	One splash on a magazine in there, and we're getting chased by dinosaurs.
3628	5	A	Huh. Looks more or less the same.
3629	5	A	Oh, my God, my Japanese children's books.
3630	5	A	I forgot about these.
3631	5	A	You Poop Now.
3632	5	A	Horton Hears a Suicide.
3633	5	A	The Little Engine That Will, Or Get Great Shame.
3634	5	A	Oh, there you are.
3635	5	A	All right, come on, Brian.
3636	5	A	Let's get out of here.
3637	5	A	Blast, that draggle-tailed, blunt-edged, matriarchal despot!
3638	5	A	Who the deuce does she think she is?!
3639	5	A	Quick, Brian, hide!
3640	5	A	I shall cleverly disguise this lethal plasma disruptor device as a tuna fish sandwich, whereupon I shall end that wretched woman's Draconian reign of tyranny!
3641	5	A	Oh. Hey.
3642	5	A	Who the deuce are you?
3643	5	A	Uh, well, I'm, uh... I'm you.
3644	5	A	You look like me, but that's utterly impossible.
3645	5	A	I'm afraid it's true.
3646	5	A	I'm you from the future.
3647	5	A	I've traveled back in time.
3648	5	A	That's absurd.
3649	5	A	Look, I can prove to you that I'm you from the future.
3650	5	A	I know about the Eddie Bauer catalog.
3651	5	A	It is you!
3652	4	A	Okay, bye, Lois.
3653	4	A	I'm going to the stag party.
3654	5	A	Brian, you might as well come out now.
3655	5	A	He knows everything.
3656	5	A	Uh-oh.
3657	5	A	Brian, are you all right?
3658	0	A	Yeah, I'm fine.
3659	5	A	Where'd you get that?
3660	5	A	The Stewie from the past has a lot more gadgets and things than I do.
3661	5	A	I've kind of slacked off a little bit.
3662	5	A	How's the party? Looks like fun.
3664	4	A	Right here.
3666	4	A	All right!
3667	4	A	What do I win?
3669	5	A	Okay, take a last look, 'cause we're out of here.
3670	0	A	Oh, look at that.
3671	0	A	There's the old gang we've gotten to know so well over the years.
3672	5	A	TV's not even plugged in.
3673	0	A	What is this?
3674	0	A	Where the hell are we?
3676	0	A	Stewie, what's going on?
3677	5	A	I don't know.
3678	5	A	For some reason, the time machine didn't take us back to the present.
3679	5	A	We're still in 1999.
3680	0	A	Wait a minute. I remember this.
3681	0	A	I think I'm up in that blimp.
3682	0	A	Amazing. You can barely drive a car, and yet you were allowed to fly a blimp?
3683	4	A	Yeah, America's great, isn't it?
3684	4	A	Cept for the South.
3685	5	A	Oh, no wonder the return pad didn't take us all the way.
3686	5	A	The batteries are almost depleted.
3687	0	A	Are those D batteries?
3688	5	A	Yes, ever since we had that trouble in Germany,
3689	5	A	I found a way to convert it so it takes D batteries instead of uranium.
3690	5	A	Only problem is, I didn't bring any cash with me.
3691	5	A	Did you?
3692	0	A	I don't think that's gonna be a problem.
3693	5	A	Oh, my God! Quick, grab some money!
3694	5	A	Do you, do you have pockets?
3695	5	A	Are you putting that in pockets?
3696	5	A	That's so cute.
3699	5	A	Quick, Brian, get on!
3701	0	A	Oh, God! Now where are we?
3702	4	A	Well, you know, I figured the sooner I cashed the check, the sooner they'd, uh, catch their mistake.
3703	4	A	Look, why are we making a federal case out of this?
3704	0	A	Oh, man, this is the day
3705	0	A	Peter went to court for his welfare fraud.
3706	5	A	Hey.
3708	5	A	You're the Kool-Aid Guy.
3710	5	A	What are you doing?
3712	5	A	For what?
3714	0	A	Hey, is there any place around here that sells batteries?
3719	2	A	Oh, no. Oh, no.
3720	3	A	Oh, no! Oh, no!
3721	5	A	So there's no organs or glands or anything, right?
3722	5	A	It's just the liquid?
3724	5	A	Um, I don't know if this is a weird question, but... can I have some?
3726	5	A	Oh, now I don't want it.
3728	2	A	Look, my husband may be a bit thoughtless at times; he may even be downright, well, stupid, but I know he only accepted that money because he...
3733	0	A	Okay, this is good.
3734	0	A	We got the D batteries.
3735	0	A	Let's get back to the present.
3736	5	A	All right, get on.
3737	0	A	We made it.
3738	5	A	Yeah, the Super Bowl was cool, but frankly, no Tommy Brady, no Stewie likey.
3739	2	A	Brian, there you are!
3740	2	A	Come quick, they're about to announce the unveiling of your statue on the news.
3741	0	A	Statue?! For what?
3742	2	A	What do you think, Mr. National Hero?
3743	2	A	For stopping the 9/11 terrorist attacks and saving our country.
3744	5	A	Oh, you--
3745	5	A	I can't even express how mad I am at you right now.
3746	2	A	If it wasn't for you, those planes would've hit the World Trade Center.
3747	5	A	Brian, what the hell did you do?!
3748	0	A	I, uh, may have told my former self about 9/11.
3749	5	A	What did I tell you about altering the past?!
3750	5	A	Wait-Wait, when did you even do that?
3751	0	A	Well, you remember when I said I was going to take a leak?
3752	5	A	Brian, you shouldn't have done that.
3753	5	A	Who knows what unforeseen consequences are awaiting us.
3754	5	A	Saddam Hussein could be president.
3755	5	A	Mexico could be the world's dominant super power.
3756	5	A	Cookie Monster could have invented Facebook!
3759	2	A	Brian!
3760	2	A	Hurry, it's starting!
3768	0	A	Here. Make sure you get all this.
3769	0	A	Time to terrorize the terrorists.
3770	5	A	Ugh. You prepared catch phrases for yourself?
3771	0	A	No. Not necessarily.
3772	0	A	Mohammed Atta stayed home.
3773	5	A	Nobody knows that guy's name yet.
3774	5	A	You're using information that nobody knows.
3775	0	A	Houston, we have a solution.
3776	5	A	Houston's for space, not everyday air travel.
3777	0	A	Tell them to ground every plane out of the East Coast.
3778	0	A	Seacrest out.
3782	2	A	Oh, Brian, we're so proud of you.
3783	4	A	Yeah, buddy.
3784	4	A	Great job stopping those terrorists.
3785	4	A	And thank God their follow-up attack on St. Louis was a bust.
3787	5	A	Brian, I promise you, all of this can only end badly.
3788	0	A	Stewie, it's fine.
3789	0	A	I prevented 9/11.
3790	0	A	How could that possibly be a bad thing?
3791	0	A	I mean, come on, I-I saved, like, 200 lives.
3792	0	A	Wow! 3,000?!
3793	5	A	Oh, you knew what you were doing there.
3797	5	A	Bush lost in 2004?
3798	0	A	Yeah, he probably couldn't exploit people's fears with no 9/11.
3799	0	A	Bush appeared before the press today to make this brief statement.
3806	2	A	Oh, my God! Civil war?
3807	5	A	See, Brian?
3808	5	A	This is exactly what I was talking about.
3809	0	A	Look, Stewie, this doesn't necessarily mean things are going to turn out badly.
3810	0	A	In fact, I bet, five years from now, the world will still be better off for what I did.
3811	5	A	Is that so?
3812	5	A	Well, Brian, if you're that sure of yourself, then let's go five years into the future, and you can prove me wrong. Fine.
3813	0	A	Wow. This is the future?
3814	0	A	Everything looks slicker.
3815	4	A	Hey, Lois, I found some double-sided tape.
3816	4	A	I think I can do about seven minutes worth of funny stuff with it.
3817	4	A	That should get us to the Meg kissing booth story.
3818	5	A	Wow. Things have gotten kind of lazy, huh?
3822	5	A	Oh, I guess things didn't work out in Virginia.
3823	4	A	Chris, I heard you got a D on your report card.
3824	4	A	Here's a cutaway.
3825	4	A	Matthew McConaughey is terrible.
3826	5	A	Good Lord! What's happened to us?
3827	0	A	Okay, maybe things seem a little off, but other than that, the world seems okay.
3828	0	A	Which proves my point.
3829	0	A	Me stopping 9/11 led to a world that's just fine.
3831	5	A	Brian, you might want to look outside.
3832	0	A	Oh, my God!
3835	5	A	Nice work, Bri.
3836	0	A	Whoops.
3837	0	A	Well, at least Joe gets to be a cyborg.
3841	0	A	What the hell happened?
3842	0	A	Could I really have caused all this?
3843	5	A	It says here that the new American civil war you set into motion ended up in a series of concentrated nuclear strikes all along the Eastern Seaboard.
3844	5	A	It killed 17 million people.
3845	0	A	Oh.
3846	5	A	Including Cesar Millan.
3847	0	A	No!
3848	0	A	Okay, okay, I get it-- Stewie, I screwed up.
3849	0	A	All right? I shouldn't have altered the past.
3850	0	A	Is there anything we can do?
3851	5	A	Well, the only way to fix this is to return to the moment when we first arrived in the past and stop you from spilling the beans about 9/11.
3852	0	A	Okay. Okay, let's do it.
3853	0	A	Whoa, ass ahoy.
3854	5	A	All right, look, there we are.
3855	0	A	Hey, uh, Peter, it's 7:00 and you've still got your pants on.
3856	0	A	What's the occasion?
3857	5	A	Stop! Both of you!
3858	0	A	What the hell? Who are you?
3859	0	A	We're you, from the future.
3860	5	A	Oh, boy, this can't be good news.
3861	5	A	Who screwed up? Take a wild guess.
3862	0	A	What did I do?
3863	0	A	Well, nothing yet, but listen.
3864	0	A	Whatever you do, you cannot tell your former self-- that Brian-- about 9/11.
3865	0	A	If you do, America as you know it will cease to exist.
3866	5	A	My God, Brian. What the hell?
3867	5	A	We've been here two minutes, and already you've destroyed America.
3868	0	A	Okay, okay. I promise I won't say anything.
3869	5	A	Also, if you don't give that Stewie a back rub, it really messes everything up.
3870	0	A	All right, can we go now?
3871	0	A	Did that do it?
3872	0	A	Did we restore the past?
3873	5	A	Well, let's check. 9/11.
3874	5	A	Oh, there it is.
3875	5	A	We did it, Brian.
3876	5	A	We made 9/11 happen.
3877	5	A	High five! All right! All right!
3878	5	A	Yeah! High five!
3879	5	A	Wow, that... that probably wouldn't look very good out of context.
3880	2	A	There's the writer of the Harry Potter series.
3881	2	A	Must be weird hanging out with us Muggles, huh, Brian?
3882	0	A	Yeah.
3883	2	A	Well, laundrium insertum.
3884	0	A	Huh?
3885	5	A	Oh, my God.
3886	5	A	All right, you obviously have no self-control, so we've got to go back and do this again.
3887	0	A	Whoa, ass ahoy.
3888	0	A	All right, let's go.
3889	0	A	Hey, uh, Peter, it's 7:00 and you've still got your pants on.
3890	5	A	Oh, yeah, that's right. We were just here.
3892	5	A	Who the devil are you?
3893	5	A	We're from the future. So are we.
3894	5	A	We're from the further future.
3895	5	A	We came to stop you.
3896	5	A	Why? What they did actually turns out to be damage-free.
3897	5	A	It's what you're about to do-- stopping them-- that causes utter bedlam.
3898	0	A	Oh, come on.
3899	5	A	Wait! Stop!
3900	5	A	We're from the further further future.
3901	5	A	What you guys do eventually works out.
3902	5	A	It's what you two are about to do that ruins everything!
3903	0	A	Stop! Don't do anything!
3904	5	A	Oh, for God's sake.
3905	5	A	We're from the further further further future.
3906	5	A	What these two do is fine.
3907	5	A	It's what you two do that makes things worse.
3908	0	A	Stop!
3909	0	A	Wait!
3910	0	A	Hold it!
3911	0	A	Stop!
3912	0	A	Wait!
3913	0	A	No!
3914	0	A	Hold it! Stop!
3915	4	A	I don't know what I'm doing here.
3916	4	A	I'm just looking for the can.
3917	0	A	Don't move!
3918	0	A	Hold it!
3919	5	A	Freeze!
3920	5	A	Stop!
3921	5	A	Wait!
3922	5	A	No!
3923	5	A	Oh, for God's sake, why?
3924	5	A	This is why!
3925	5	A	Don't move!
3926	5	A	Hold it!
3927	5	A	Freeze!
3928	0	A	Stop!
3929	5	A	No!
3930	0	A	Wait!
3931	5	A	Oh, my God. What's that?
3932	5	A	I don't know what happened.
3933	5	A	This is life for some reason.
3934	5	A	Don't do whatever you're about to do.
3935	0	A	God help us.
3936	0	A	This is no way to live.
3937	5	A	No, don't do it! Halt!
3938	5	A	All right, everybody, shut the hell up!
3939	5	A	All right, this is (bleep), all right?
3940	5	A	I can't follow what's going on anymore, and I'm assuming the rest of you can't, either.
3941	5	A	So let's make this easy and take a vote.
3942	5	A	How many think we should prevent 9/11?
3943	0	A	Raise your hands.
3944	5	A	One, two, three, four, five six, seven, eight, nine...
3945	5	A	Okay, all right, looks like 42.
3946	0	A	All right, who votes yes 9/11?
3947	5	A	Okay, all right, 57.
3948	5	A	All right, 9/11 wins.
3949	0	A	Wait, wait, shouldn't it be an even number?
3950	0	A	Why is the total an odd number?
3951	5	A	Oh, yeah, I think one of the Brians died.
3952	0	A	What? What do you mean? I don't know-- one of them landed here with its throat slit.
3953	5	A	But wait, if one of me is dead, then shouldn't all the me's be dead?
3954	5	A	Brian, I-I don't... I... it's...
3955	5	A	I don't... I don't know anymore. I-I...
3956	5	A	You know what? I guess not. A-All right?
3957	5	A	Okay, listen up-- everybody, get back in your individual time machines very carefully.
3958	5	A	Nobody touch anything.
3959	5	A	No Harry Potter novels.
3960	5	A	Don't step on a bug.
3961	5	A	Don't give earlier yous investment advice.
3962	5	A	Just go back to where you came from, and stay there!
3963	5	A	There.
3964	5	A	Now, we're going to do what we should have done in the first place.
3965	5	A	Get on.
3966	0	A	Wait a minute. Isn't this where we just were?
3967	0	A	Where are the other two us's?
3968	5	A	They're not here yet.
3969	5	A	Just to make sure there are absolutely no loose ends,
3970	5	A	I've sent us back in time to the moment just before you and I originally arrived.
3971	0	A	Why? You'll see.
3972	5	A	Get the (bleep) back in your time machine!
3973	5	A	Aah! Who are you?
3974	5	A	Never mind who I am!
3975	5	A	Just get back in your time machine, get back to the present, and stay there!
3976	0	A	Look, just calm down. Aah!
3977	5	A	You gonna flap your lips or you gonna do what I said?
3978	0	A	Okay, okay!
3979	5	A	All right! God!
3980	0	A	You just talked to yourself.
3981	0	A	Won't that alter the past?
3982	5	A	Don't worry, Brian.
3983	5	A	If I was successful in restoring the past just now, you and I will never have existed.
3984	5	A	The chronological tangent that created us will have been erased.
3985	0	A	Oh. Is it going to hurt?
3986	5	A	Just a little.
3987	0	A	Ow.
3988	0	A	Oh, God, my leg is killing me.
3989	5	A	Well, time travel is risky.
3990	5	A	Every time you step into that machine, you invite the possibility of altering the world as we know it.
3991	5	A	Thankfully, the alternate versions of us were there to prevent us from doing whatever it is we apparently did.
3992	0	A	I wonder what it was. We'll never know.
3993	5	A	But look on the bright side.
3994	5	A	You might be sitting here with a hole in your leg, but at least our present universe hasn't been affected.
3995	4	A	Sorry, guys. I'm gonna need the couch.